Session 6 Assignment 3 · Portfolio Website for Hee Wen Loo
…
experience_salary <- omega %>% 
  group_by(experience) %>% 
  summarise(mean_salary= mean(salary),
            median_salary= median(salary),
            std_salary= sd(salary),
            count = n(),
            t_critical = qt(0.975, count-1),
            se_salary = std_salary/sqrt(count),
            margin_of_error = t_critical * se_salary,
            CI_experience_low = mean_salary - margin_of_error,
            CI_experience_high = mean_salary + margin_of_error)

experience_salary

## # A tibble: 28 × 10
##    experience mean_salary median_salary std_salary count t_critical se_salary
##         <dbl>       <dbl>         <dbl>      <dbl> <int>      <dbl>     <dbl>
##  1          0      55461.        55490.      5111.     7       2.45     1932.
##  2          1      63174.        63174.       511.     2      12.7       361.
##  3          2      62839.        63948.      2783.     4       3.18     1392.
##  4          3      61816.        63948.      6261.     3       4.30     3615.
##  5          4      66114.        66114.        NA      1     NaN          NA 
##  6          5      62194.        62194.        NA      1     NaN          NA 
##  7          6      61679.        61679.        NA      1     NaN          NA 
##  8          7      66526.        66526.        NA      1     NaN          NA 
##  9          8      70343.        70343.        NA      1     NaN          NA 
## 10         11      66217.        66217.      2334.     2      12.7      1650.
## # … with 18 more rows, and 3 more variables: margin_of_error <dbl>,
## #   CI_experience_low <dbl>, CI_experience_high <dbl>
…
