…
animal_rescue %>% 
  group_by(animal_group_parent) %>% 
  
  #group_by and summarise will produce a new column with the count in each animal group
  summarise(count = n()) %>% 
  
  # mutate adds a new column; here we calculate the percentage
  mutate(percent = round(100*count/sum(count),2)) %>% 
  
  # arrange() sorts the data by percent. Since the default sorting is min to max and we would like to see it sorted
  # in descending order (max to min), we use arrange(desc()) 
  arrange(desc(percent))

## # A tibble: 28 × 3
##    animal_group_parent              count percent
##    <chr>                            <int>   <dbl>
##  1 Cat                               3783   48.0 
##  2 Bird                              1631   20.7 
##  3 Dog                               1230   15.6 
##  4 Fox                                373    4.74
##  5 Unknown - Domestic Animal Or Pet   201    2.55
##  6 Horse                              195    2.48
##  7 Deer                               136    1.73
##  8 Unknown - Wild Animal               94    1.19
##  9 Squirrel                            68    0.86
## 10 Unknown - Heavy Livestock Animal    50    0.64
## # … with 18 more rows

animal_rescue %>% 
  
  #count does the same thing as group_by and summarise
  # name = "count" will call the column with the counts "count" ( exciting, I know)
  # and 'sort=TRUE' will sort them from max to min
  count(animal_group_parent, name="count", sort=TRUE) %>% 
  mutate(percent = round(100*count/sum(count),2))

## # A tibble: 28 × 3
##    animal_group_parent              count percent
##    <chr>                            <int>   <dbl>
##  1 Cat                               3783   48.0 
##  2 Bird                              1631   20.7 
##  3 Dog                               1230   15.6 
##  4 Fox                                373    4.74
##  5 Unknown - Domestic Animal Or Pet   201    2.55
##  6 Horse                              195    2.48
##  7 Deer                               136    1.73
##  8 Unknown - Wild Animal               94    1.19
##  9 Squirrel                            68    0.86
## 10 Unknown - Heavy Livestock Animal    50    0.64
## # … with 18 more rows
…
There is two things we will do:

Calculate the mean and median incident_notional_cost for each animal_group_parent

Plot a boxplot to get a feel for the distribution of incident_notional_cost by animal_group_parent.

Now, let us quickly calculate summary statistics for each animal group.

animal_rescue %>% 
  
  # group by animal_group_parent
  group_by(animal_group_parent)

## # A tibble: 7,873 × 31
## # Groups:   animal_group_parent [28]
##    incident_number date_time_of_call cal_year fin_year type_of_incident
##    <chr>           <chr>                <dbl> <chr>    <chr>           
##  1 139091          01/01/2009 03:01      2009 2008/09  Special Service 
##  2 275091          01/01/2009 08:51      2009 2008/09  Special Service 
##  3 2075091         04/01/2009 10:07      2009 2008/09  Special Service 
##  4 2872091         05/01/2009 12:27      2009 2008/09  Special Service 
##  5 3553091         06/01/2009 15:23      2009 2008/09  Special Service 
##  6 3742091         06/01/2009 19:30      2009 2008/09  Special Service 
##  7 4011091         07/01/2009 06:29      2009 2008/09  Special Service 
##  8 4211091         07/01/2009 11:55      2009 2008/09  Special Service 
##  9 4306091         07/01/2009 13:48      2009 2008/09  Special Service 
## 10 4715091         07/01/2009 21:24      2009 2008/09  Special Service 
## # … with 7,863 more rows, and 26 more variables: pump_count <chr>,
## #   pump_hours_total <chr>, hourly_notional_cost <dbl>,
## #   incident_notional_cost <chr>, final_description <chr>,
## #   animal_group_parent <chr>, originof_call <chr>, property_type <chr>,
## #   property_category <chr>, special_service_type_category <chr>,
## #   special_service_type <chr>, ward_code <chr>, ward <chr>,
## #   borough_code <chr>, borough <chr>, stn_ground_name <chr>, uprn <chr>, …
…
